{
	"info": {
		"count": 493,
		"pages": 25,
		"next": "https://rickandmortyapi.com/api/character/?page=2",
		"prev": ""
	},
	"results": [{
			"id": 1,
			"name": "Rick Sanchez",
			"status": "Alive",
			"species": "Human",
			"type": "",
			"gender": "Male",
			"origin": {
				"name": "Earth (C-137)",
				"url": "https://rickandmortyapi.com/api/location/1"
			},
			"location": {
				"name": "Earth (Replacement Dimension)",
				"url": "https://rickandmortyapi.com/api/location/1"
			},
			"image": "https://rickandmortyapi.com/api/character/avatar/1.jpeg",
			"episode": [
				"https://rickandmortyapi.com/api/episode/1"
			],
			"url": "https://rickandmortyapi.com/api/character/1",
			"created": "2017-11-04T18:48:46.250Z"
		}
	]
}
